<svg width="24" height="24" viewBox="0 0 24 24" fill="none" xmlns="http://www.w3.org/2000/svg">
<path d="M4.17616 16.8829H10.6487" stroke="#606060" stroke-width="1.5" stroke-linecap="round" stroke-linejoin="round"/>
<path d="M13.1768 7.39415H19.6484" stroke="#606060" stroke-width="1.5" stroke-linecap="round" stroke-linejoin="round"/>
<path fill-rule="evenodd" clip-rule="evenodd" d="M9.11537 6.39269C9.11537 4.35179 8.43448 3.6709 6.39358 3.6709C4.35179 3.6709 3.6709 4.35179 3.6709 6.39269C3.6709 8.43448 4.35179 9.11448 6.39358 9.11448C8.43448 9.11448 9.11537 8.43448 9.11537 6.39269Z" stroke="#606060" stroke-width="1.5" stroke-linecap="round" stroke-linejoin="round"/>
<path fill-rule="evenodd" clip-rule="evenodd" d="M20.115 16.8834C20.115 18.9252 19.4341 19.6052 17.3932 19.6052C15.3523 19.6052 14.6714 18.9252 14.6714 16.8834C14.6714 14.8416 15.3523 14.1616 17.3932 14.1616C19.4341 14.1616 20.115 14.8416 20.115 16.8834Z" stroke="#606060" stroke-width="1.5" stroke-linecap="round" stroke-linejoin="round"/>
</svg>
